%YAML 1.1
%TAG !u! tag:unity3d.com,2011:
--- !u!162 &1
EditorUserSettings:
  m_ObjectHideFlags: 0
  serializedVersion: 4
  m_ConfigSettings:
    RecentlyUsedScenePath-0:
      value: 224247031146460b322a093450024c0313030b651f2b233e283a521fe7f63134a2f333faf3742a323016f6
      flags: 0
    RecentlyUsedScenePath-1:
      value: 22424703114646680e0b0227036c740217141325393c68252320092a
      flags: 0
    RecentlyUsedScenePath-2:
      value: 224247031146460b322a093450024c0313030b651f2b233e283a521fe7f63134adcb33ffe2367f6f7717e1351027
      flags: 0
    RecentlyUsedScenePath-3:
      value: 224247031146460b322a093450024c0313030b651f2b233e283a521fe7f63134a2b609a7f234362820
      flags: 0
    RecentlyUsedScenePath-4:
      value: 224247031146460b322a093450024c0313030b651f2b233e283a521fe7f63134a2b509a7f234362820
      flags: 0
    RecentlyUsedScenePath-5:
      value: 224247031146460b322a093450024c0313030b651f2b233e283a521fe7f63134adcb33ffe2367f6e7717e1351027
      flags: 0
    RecentlyUsedScenePath-6:
      value: 224247031146460b322a093450024c0313030b651f2b233e283a521fe7f63134adcb33ffe2367f6d7717e1351027
      flags: 0
    RecentlyUsedScenePath-7:
      value: 224247031146460b322a093450024c0313030b651f2b233e283a5214e3ed3178cfe638e8e03f2d722c0ce6281d
      flags: 0
    RecentlyUsedScenePath-8:
      value: 224247031146460b322a093450024c0313030b651f2b233e283a521ee3e93a78cfe238fca92f31352d1b
      flags: 0
    vcSharedLogLevel:
      value: 0d5e400f0650
      flags: 0
  m_VCAutomaticAdd: 1
  m_VCDebugCom: 0
  m_VCDebugCmd: 0
  m_VCDebugOut: 0
  m_SemanticMergeMode: 2
  m_VCShowFailedCheckout: 1
  m_VCOverwriteFailedCheckoutAssets: 1
  m_VCProjectOverlayIcons: 1
  m_VCHierarchyOverlayIcons: 1
  m_VCOtherOverlayIcons: 1
  m_VCAllowAsyncUpdate: 1
